<?xml version="1.0" encoding="UTF-8" standalone="no"?>
<svg width="67px" height="67px" viewBox="0 0 67 67" version="1.1" xmlns="http://www.w3.org/2000/svg" xmlns:xlink="http://www.w3.org/1999/xlink">
    <!-- Generator: Sketch 42 (36781) - http://www.bohemiancoding.com/sketch -->
    <title>Page 1</title>
    <desc>Created with Sketch.</desc>
    <defs></defs>
    <g id="Page-1" stroke="none" stroke-width="1" fill="none" fill-rule="evenodd">
        <path d="M25.002,41.998 L59.002,41.998 L59.002,7.998 L25.002,7.998 L25.002,41.998 Z M59,0 L25,0 C20.582,0 17,3.581 17,8 L17,42 C17,46.418 20.582,50 25,50 L59,50 C63.418,50 67,46.418 67,42 L67,8 C67,3.581 63.418,0 59,0 L59,0 Z M8,34 L0,34 L0,59 C0,63.418 3.582,67 8,67 L33,67 L33,59 L8,59 L8,34 Z" fill="#231813"></path>
    </g>
</svg>